"Gender","Age","Income","Race","Hispanic","Schooling","Citizen","Married","Partisan","CCorrected","TCorrected","Support"
"F",29,"5","White","No","8","Yes","Yes",2.6,0.583333333333333,-0.166666666666667,"Clinton"
"F",26,"7","White","No","8","Yes","No",2.6,-0.345054945054945,0.221611721611722,"Clinton"
"M",36,"7","Asian","No","8","Yes","No",3.2,0.204166666666667,-0.173611111111111,"Clinton"
"F",52,"7","White","No","9","Yes","Yes",2.8,0.0675505050505051,-0.159722222222222,"Clinton"
"F",20,"8","White","No","5","Yes","No",1,-0.545454545454545,0.454545454545455,"Clinton"
"M",70,"4","White","No","7","Yes","Yes",3.4,0.138888888888889,0.166666666666667,"Trump"
"F",35,"5","Black","No","5","Yes","No",2.2,-0.0248917748917749,0.0227272727272727,"Clinton"
"M",41,"4","White","No","9","Yes","No",5.4,0.0393939393939393,0.00909090909090904,"Trump"
"F",38,"9","White","No","9","Yes","Yes",3,0.183333333333333,0.1,"Clinton"
"M",62,"5","White","No","5","Yes","Yes",4.2,0.272727272727273,-0.155844155844156,"Trump"
"F",34,"2","White","No","9","Yes","Yes",2.4,0.038961038961039,0.316738816738817,"Clinton"
"F",26,"1","White","No","7","Yes","Yes",2.6,0.6,-0.1,"Clinton"
"F",52,"7","White","No","5","Yes","Divorced",6.2,0.087012987012987,-0.012987012987013,"Trump"
"F",35,"2","White","No","5","Yes","Yes",2.6,0.237362637362637,-0.685714285714286,"Clinton"
"M",25,"3","White","No","8","Yes","No",1.6,0.130681818181818,0.0125,"Clinton"
"M",33,"7","White","No","7","Yes","No",3.4,0.311507936507937,-0.0634920634920635,"Clinton"
"F",27,"9","Black","No","8","Yes","Yes",2.4,0.207142857142857,-0.0428571428571428,"Clinton"
"F",41,"7","White","No","6","Yes","Yes",6.2,-0.0636363636363636,0.322727272727273,"Trump"
"F",26,"5","Black","No","5","Yes","No",3.6,0.479365079365079,0.372222222222222,"Clinton"
"F",36,"6","White","No","8","Yes","No",4.4,0.318181818181818,-0.0318181818181818,"Trump"
"M",28,"6","White","No","7","Yes","No",3.6,-0.116666666666667,0.25,"Clinton"
"M",54,"7","White","No","9","Yes","Yes",6,-0.425324675324675,0.431818181818182,"Trump"
"M",38,"9","Black","No","8","Yes","Yes",4.4,0.357142857142857,-0.107142857142857,"Clinton"
"F",24,"3","White","Yes","7","Yes","No",2.8,0.434722222222222,0.326388888888889,"Clinton"
"F",27,"1","White","No","5","Yes","Yes",5.8,-0.295454545454545,-0.194444444444444,"Trump"
"M",32,"1","White","No","8","Yes","No",1,0.102272727272727,0.102272727272727,"Clinton"
"F",41,"7","Black","No","9","Yes","Yes",4.8,0.337121212121212,0.0643939393939394,"Trump"
"M",26,"7","White","No","8","Yes","No",4.8,-0.5,0.0888888888888888,"Trump"
"M",50,"9","White","No","9","Yes","Yes",2,0.192307692307692,0.0286713286713286,"Clinton"
"M",60,"7","White","No","8","Yes","Yes",1,0.444444444444444,-0.430555555555556,"Clinton"
"F",57,"5","White","No","4","Yes","Divorced",1,-0.256944444444444,-0.317550505050505,"Clinton"
"F",41,"7","White","No","8","Yes","Divorced",2.8,-0.136904761904762,-0.263888888888889,"Clinton"
"F",39,"9","White","No","5","Yes","Yes",6.2,-0.238095238095238,0.428571428571429,"Trump"
"M",28,"4","White","No","9","Yes","No",4.2,-0.196428571428571,-0.025,"Clinton"
"F",33,"7","American Indian","No","9","Yes","Yes",4,-0.0744047619047619,-0.645833333333333,"Clinton"
"M",42,"5","White","No","8","Yes","Divorced",2.4,0.466666666666667,-0.16969696969697,"Clinton"
"F",38,"8","Other","No","8","Yes","No",4.8,-0.44017094017094,-0.0909645909645911,"Trump"
"F",48,"8","White","No","8","Yes","Yes",7,-0.0948051948051948,0.107575757575758,"Trump"
"F",54,"2","White","No","11","Yes","Separated",1.8,0.333333333333333,0,"Clinton"
"M",38,"7","White","No","9","Yes","Divorced",1.8,0.0624999999999999,0.284722222222222,"Clinton"
"F",52,"8","White","No","11","Yes","Separated",1.4,0.0547619047619049,-0.00079365079365068,"Clinton"
"M",39,"7","Black","No","8","Yes","Yes",3,0.645833333333333,-0.354166666666667,"Clinton"
"M",46,"5","White","No","8","Yes","No",2.2,-0.0416666666666667,0.0583333333333332,"Clinton"
"F",26,"6","White","No","5","Yes","No",3.8,-0.106150793650794,0.0107323232323232,"Trump"
"M",30,"1","White","No","7","Yes","No",1.4,0.0347222222222222,-0.178952991452991,"Clinton"
"F",39,"6","White","No","8","Yes","Yes",1.8,0.206043956043956,-0.543956043956044,"Clinton"
"F",48,"4","White","No","5","Yes","Divorced",7,0.0584415584415585,0.467532467532468,"Trump"
"M",57,"3","White","No","7","Yes","No",2.6,-0.00202020202020201,0.0202020202020202,"Clinton"
"M",31,"7","White","No","8","Yes","No",2.2,-0.0763888888888888,-0.121843434343434,"Clinton"
"M",47,"4","White","No","8","Yes","Yes",5.4,-0.0583333333333333,0.255952380952381,"Trump"
"F",37,"7","White","Yes","5","Yes","Yes",4,0.236111111111111,0.147222222222222,"Clinton"
"F",32,"6","White","No","8","Yes","Yes",3.2,0.1,-0.316666666666667,"Clinton"
"M",26,"7","Asian","No","6","Yes","No",6.4,-0.304473304473304,-0.215584415584416,"Trump"
"M",25,"9","Asian","No","8","Yes","No",2,0.263888888888889,-0.283730158730159,"Clinton"
"F",31,"5","White","No","8","Yes","Yes",1.6,0.205050505050505,0.00505050505050508,"Clinton"
"F",59,"8","White","No","7","Yes","Yes",6.6,0.5,-0.423076923076923,"Trump"
"F",49,"7","White","No","9","Yes","Yes",4.6,-0.224242424242424,0.475757575757576,"Trump"
"M",56,"3","White","No","5","Yes","Yes",5.4,-0.716666666666667,0.0833333333333333,"Trump"
"M",41,"5","White","No","4","Yes","No",5,-0.408653846153846,0.354166666666667,"Trump"
"M",27,"6","White","No","8","Yes","Yes",4.8,0.00252525252525254,-0.261111111111111,"Trump"
"M",27,"5","White","Yes","5","Yes","Yes",4.4,0,0.0170940170940171,"Clinton"
"M",31,"8","Black","No","8","Yes","Yes",5,0.222222222222222,0.555555555555556,"Trump"
"M",30,"7","White","No","8","Yes","No",3.6,0.214285714285714,0.153679653679654,"Clinton"
"M",23,"Hidden","Asian","No","8","Hidden","No",3.6,0.260714285714286,0.135714285714286,"Clinton"
"F",25,"7","White","No","8","Yes","No",2.6,0.23015873015873,-0.0615079365079365,"Clinton"
"F",22,"6","White","No","8","Yes","No",2.2,0.727777777777778,0.0611111111111111,"Clinton"
"F",49,"5","White","No","7","Yes","Yes",1.4,0.2125,0.231730769230769,"Clinton"
"M",48,"7","White","No","5","Yes","Yes",4.2,-0.116666666666667,-0.075,"Trump"
"M",24,"7","White","No","8","Yes","No",3.4,0.0666666666666667,-0.177777777777778,"Clinton"
"M",37,"7","White","No","11","Yes","Yes",2.8,-0.00595238095238093,-0.0854978354978355,"Clinton"
"M",44,"6","White","No","6","Yes","No",4.8,-0.45,0.368181818181818,"Trump"
"M",39,"8","White","No","8","Yes","Yes",5.4,-0.157142857142857,-0.0857142857142856,"Trump"
"M",32,"8","Black","No","8","Yes","Yes",2,0.233516483516484,-0.208041958041958,"Clinton"
"F",31,"7","White","No","4","Yes","Yes",2.2,-0.0902777777777778,-0.3125,"Clinton"
"M",24,"3","White","No","5","Yes","No",6.8,-0.242424242424242,-0.425757575757576,"Trump"
"M",36,"8","White","No","8","Yes","Yes",7,0.05,0.85,"Trump"
"M",29,"4","White","No","5","Yes","No",1.8,0.200961538461538,0.1625,"Clinton"
"F",55,"3","White","No","6","Yes","No",1,-0.00555555555555559,-0.45,"Clinton"
"M",44,"3","White","No","5","Yes","Divorced",5.2,0.483333333333333,-0.29047619047619,"Trump"
"F",67,"8","White","No","9","Yes","Yes",6,-0.0160256410256411,0.150641025641026,"Trump"
"M",52,"4","White","No","8","Yes","No",1.4,-0.261904761904762,-0.19047619047619,"Clinton"
"M",24,"6","Black","No","8","Yes","No",1.2,0.0166666666666666,0.0722222222222222,"Clinton"
"M",34,"6","White","No","4","Yes","Yes",5.8,0.252525252525253,0.424242424242424,"Trump"
"M",34,"7","White","No","9","Yes","Yes",1.4,0.0476190476190476,-0.108225108225108,"Clinton"
"F",40,"3","White","No","8","Yes","No",2.4,0.0651515151515152,-0.33961038961039,"Clinton"
"F",52,"5","White","No","5","Yes","Yes",6.6,-0.196969696969697,-0.196969696969697,"Trump"
"M",34,"9","American Indian","No","9","Yes","Yes",2.8,-0.0545454545454547,-0.0444444444444445,"Clinton"
"F",27,"4","Black","No","7","Yes","No",2.6,-0.0333333333333333,-0.158333333333333,"Clinton"
